{
  "title": "Attorney ad litem",
  "domestic": {
    "headerSection": "Attorneys ad Litem are court-appointed functioning arms of the court charged with conducting an independent investigation and reporting to the court and making recommendations to the court regarding the best interest of the minor child(ren) or otherwise incompetent person(s).",
    "sections": [
      {
        "header": "Domestic",
        "content": [
            "Carol will meet with each parent individually at her office first. Subsequently, she will meet with the child(ren) in each of the parent’s homes. During this time, Carol will gather information to help her determine others to interview and information that she needs to gather. Based on these interviews and the information she obtains, Carol will file any necessary motions for services for either the child(ren) and/or the parents. These services are things like counseling, co-parenting classes and tutoring."
          ]
      },
      {
        "header": "",
        "content": [
            "The child(ren) will have Carol’s contact information and be encouraged to contact her at any time with questions or concerns. Parents will be asked not to discuss the case with the child(ren) and refer them instead to Carol."
          ]
      },
      {
        "header": "",
        "content": [
            "At the conclusion of the case and prior to the hearing or trial, Carol will make it known to the attorneys what she expects to recommend to the Court for the child(ren)’s best interest. At court, Carol will call witnesses and question them just as the lawyers for the parties will. At the conclusion of the hearing or trial, she will report to the Court what she has done, learned and what her recommendation is."
          ]
      },
      {
        "header": "",
        "content": [
            "If her recommendation differs from the desires of the child(ren), she will notify the Court and explain why her recommendation is contrary to the stated wishes of the child(ren)."
          ]
      }
    ]
  },
  "probate": {
    "headerSection": "Certain persons are required by law to be notified when a petition has been filed with the court to adopt a child When any of those persons cannot be found, an Attorney ad Litem must be appointed to make a reasonable effort to locate the person and serve him or her with notice of the adoption hearing.",
    "sections": [
      {
        "header": "Probate",
        "content": [
          "Once appointed, Carol will gather any information that is known about the person entitled to be notified of the hearing. This is usually a parent of a child. Carol will then search social media, prisons and jails in the locations where the missing person has lived recently and by any other means available. If found, Carol will serve the missing person. If the person is not found using the means listed above, she will publish a legal notice in a county-wide newspaper 1 time for 4 weeks. The last publication must be at least 7 days prior to the hearing. Lastly, Carol will file with the Court an affidavit stating the steps she took to find the missing person and thesis paper writing service provide a certified copy of the notice that was published in the paper."
          ]
      }
    ]
  }
}